{
  "$schema": "https://vega.github.io/schema/vega-lite/v4.json",
  "description": "Base similarity to reference over all sequences",
  "title": "",
  "width": "container",
  "height": "container",
  "data": {"values": []},
  "mark": {"type": "line"},
  "transform": [
    {"filter": "datum.percentage > 0"}
  ],
  "selection": {
      "hover": {
        "type": "single",
        "on": "mouseover",
        "empty": "all",
        "fields": ["name"]
      },
      "leg": {
        "type": "multi", "fields": ["name"], "bind": "legend"
      }
    },
  "encoding": {
    "color": {
      "field": "name",
      "type": "nominal"
    },
    "opacity": {
      "condition": {
        "selection": {"or":["hover","leg"]},
        "value": 1
      },
      "value": 0.3
    },
    "x": {"field": "percentage", "type": "quantitative", "title": "Base similarity to reference", "scale": {"domain": [1,100]}},
    "y": {"field": "count", "type": "quantitative", "title": null}
  }
}
