{
  "$schema": "https://vega.github.io/schema/vega-lite/v4.json",
  "data": {"values": []},
  "vconcat": [
    {
    "height": 50,
    "width": 200,
    "selection": {
      "brush": {
        "type": "interval",
        "encodings": ["x"]
      }
    },
    "mark": "bar",
    "encoding": {
    "x": {
      "field": "k_mer",
      "type": "ordinal",
      "sort": "-y",
      "title": "k-mer",
      "axis": null
    },
    "y": {
      "field": "count",
      "type": "quantitative",
      "title": "k-mer frequency"
    }
  }
  },{
    "mark": "bar",
    "transform": [{
      "filter": {"selection": "brush"}
    }],
    "height": 500,
    "encoding": {
    "x": {
      "field": "k_mer",
      "type": "ordinal",
      "sort": "-y",
      "title": "k-mer"
    },
    "y": {
      "field": "count",
      "type": "quantitative",
      "title": "k-mer frequency"
    },
    "tooltip": {
    "field": "count"
    }
  }
  }]
}

